…
5.  Filter observations in your data according to your own criteria.
    Think of what you’d like to explore - again, if this was the
    `titanic` dataset, I may want to narrow my search down to passengers
    born in a particular year…

``` r
cancer_dat_sub <- cancer_dat%>%
  filter(area_mean<=500)
print(cancer_dat_sub)
```

    ## # A tibble: 230 × 32
    ##          ID diagnosis radius_m…¹ textu…² perim…³ area_…⁴ smoot…⁵ compa…⁶ conca…⁷
    ##       <dbl> <chr>          <dbl>   <dbl>   <dbl>   <dbl>   <dbl>   <dbl>   <dbl>
    ##  1 84348301 M              11.4     20.4    77.6    386.  0.142   0.284   0.241 
    ##  2   843786 M              12.4     15.7    82.6    477.  0.128   0.17    0.158 
    ##  3 84501001 M              12.5     24.0    84.0    476.  0.119   0.240   0.227 
    ##  4  8510824 B               9.50    12.4    60.3    274.  0.102   0.0649  0.0296
    ##  5   853612 M              11.8     18.7    77.9    441.  0.111   0.152   0.122 
    ##  6   855563 M              11.0     21.4    71.9    371.  0.123   0.122   0.104 
    ##  7 85713702 B               8.20    16.8    51.7    202.  0.086   0.0594  0.0159
    ##  8   857155 B              12.0     14.6    78.0    449.  0.103   0.0909  0.0659
    ##  9   857343 B              11.8     21.6    74.7    428.  0.0864  0.0497  0.0166
    ## 10   857374 B              11.9     18.2    75.7    438.  0.0826  0.0475  0.0197
    ## # … with 220 more rows, 23 more variables: concave_points_mean <dbl>,
    ## #   symmetry_mean <dbl>, fractal_dimension_mean <dbl>, radius_se <dbl>,
    ## #   texture_se <dbl>, perimeter_se <dbl>, area_se <dbl>, smoothness_se <dbl>,
    ## #   compactness_se <dbl>, concavity_se <dbl>, concave_points_se <dbl>,
    ## #   symmetry_se <dbl>, fractal_dimension_se <dbl>, radius_worst <dbl>,
    ## #   texture_worst <dbl>, perimeter_worst <dbl>, area_worst <dbl>,
    ## #   smoothness_worst <dbl>, compactness_worst <dbl>, concavity_worst <dbl>, …
…
